{
    "editor.fontFamily": "'FiraCode Nerd Font', monospace",
    "editor.fontLigatures": true,
    "editor.minimap.enabled": false,
    "editor.occurrencesHighlight": false,
    "editor.scrollBeyondLastLine": false,
    "explorer.sortOrder": "filesFirst",
    "files.insertFinalNewline": true,
    "files.trimFinalNewlines": true,
    "files.trimTrailingWhitespace": true,
    "git.confirmSync": false,
    "python.formatting.provider": "black",
    "shellcheck.enable": true,
    "shellcheck.enableQuickFix": true,
    "shellcheck.run": "onSave",
    "shellcheck.executablePath": "shellcheck",
    "shellcheck.exclude": [1090],
    "shellcheck.customArgs": [],
    "shellcheck.ignorePatterns": {},
    "shellcheck.ignoreFileSchemes": ["git", "gitfs"],
    "shellcheck.useWSL": false,
    "workbench.colorTheme": "Nord",
    "workbench.editor.tabSizing": "shrink",
    "files.associations": {
      "Vagrantfile": "ruby",
      "config": "properties"
    },
    "files.watcherExclude": {
      "**/.git/objects/**": true,
      "**/.git/subtree-cache/**": true,
      "**/node_modules/*/**": true
    }
}
